{
  "project_info": {
    "project_number": "1055860699702",
    "firebase_url": "https://proyecto-487e9.firebaseio.com",
    "project_id": "proyecto-487e9",
    "storage_bucket": "proyecto-487e9.appspot.com"
  },
  "client": [
    {
      "client_info": {
        "mobilesdk_app_id": "1:1055860699702:android:c60cf540b41b9f76",
        "android_client_info": {
          "package_name": "com.example.kinrex.autobusesmapasv2"
        }
      },
      "oauth_client": [
        {
          "client_id": "1055860699702-7kep78a463lm18atkaf9s6iqt4psqm08.apps.googleusercontent.com",
          "client_type": 1,
          "android_info": {
            "package_name": "com.example.kinrex.autobusesmapasv2",
            "certificate_hash": "427bc43c511a5b5a1dbc374e2d7efec1029d0de8"
          }
        },
        {
          "client_id": "1055860699702-n06pv50c1bo94rrbnqhlldlh5ul2ifb8.apps.googleusercontent.com",
          "client_type": 3
        }
      ],
      "api_key": [
        {
          "current_key": "AIzaSyCaIHBQSh--CUc16B5e9Az4QQVgziwDB_U"
        }
      ],
      "services": {
        "analytics_service": {
          "status": 1
        },
        "appinvite_service": {
          "status": 2,
          "other_platform_oauth_client": [
            {
              "client_id": "1055860699702-n06pv50c1bo94rrbnqhlldlh5ul2ifb8.apps.googleusercontent.com",
              "client_type": 3
            }
          ]
        },
        "ads_service": {
          "status": 2
        }
      }
    },
    {
      "client_info": {
        "mobilesdk_app_id": "1:1055860699702:android:db67508f1c992a77",
        "android_client_info": {
          "package_name": "com.example.kinrex.autobusesmaps"
        }
      },
      "oauth_client": [
        {
          "client_id": "1055860699702-4hne4vermgnar8i0v16ma2024uj95lms.apps.googleusercontent.com",
          "client_type": 1,
          "android_info": {
            "package_name": "com.example.kinrex.autobusesmaps",
            "certificate_hash": "427bc43c511a5b5a1dbc374e2d7efec1029d0de8"
          }
        },
        {
          "client_id": "1055860699702-n06pv50c1bo94rrbnqhlldlh5ul2ifb8.apps.googleusercontent.com",
          "client_type": 3
        }
      ],
      "api_key": [
        {
          "current_key": "AIzaSyCaIHBQSh--CUc16B5e9Az4QQVgziwDB_U"
        }
      ],
      "services": {
        "analytics_service": {
          "status": 1
        },
        "appinvite_service": {
          "status": 2,
          "other_platform_oauth_client": [
            {
              "client_id": "1055860699702-n06pv50c1bo94rrbnqhlldlh5ul2ifb8.apps.googleusercontent.com",
              "client_type": 3
            }
          ]
        },
        "ads_service": {
          "status": 2
        }
      }
    }
  ],
  "configuration_version": "1"
}